<?xml version="1.0" encoding="UTF-8"?>
<svg xmlns="http://www.w3.org/2000/svg" xmlns:xlink="http://www.w3.org/1999/xlink" width="504.883338" height="300" viewBox="0 0 504.883338 300">
<path fill-rule="nonzero" fill="rgb(0%, 0%, 0%)" fill-opacity="1" d="M 105.839844 42.121094 C 106.167969 40.878906 106.335938 40.300781 107.328125 40.21875 C 107.742188 40.132812 109.484375 40.132812 110.476562 40.132812 C 114.207031 40.132812 120.003906 40.132812 120.003906 45.355469 C 120.003906 47.09375 119.175781 50.738281 117.1875 52.726562 C 115.78125 54.136719 113.046875 55.792969 108.324219 55.792969 L 102.441406 55.792969 Z M 113.378906 56.457031 C 118.679688 55.296875 124.894531 51.648438 124.894531 46.347656 C 124.894531 41.875 120.171875 38.476562 113.292969 38.476562 L 98.382812 38.476562 C 97.386719 38.476562 96.890625 38.476562 96.890625 39.554688 C 96.890625 40.132812 97.386719 40.132812 98.382812 40.132812 C 98.464844 40.132812 99.460938 40.132812 100.371094 40.21875 C 101.28125 40.300781 101.777344 40.382812 101.777344 41.046875 C 101.777344 41.292969 101.695312 41.460938 101.53125 42.039062 L 94.488281 70.207031 C 93.992188 72.195312 93.910156 72.609375 89.765625 72.609375 C 88.855469 72.609375 88.359375 72.609375 88.359375 73.6875 C 88.359375 74.265625 88.9375 74.265625 89.101562 74.265625 C 90.511719 74.265625 94.238281 74.101562 95.648438 74.101562 C 97.140625 74.101562 100.867188 74.265625 102.359375 74.265625 C 102.773438 74.265625 103.351562 74.265625 103.351562 73.191406 C 103.351562 72.609375 102.9375 72.609375 101.945312 72.609375 C 99.957031 72.609375 98.546875 72.609375 98.546875 71.699219 C 98.546875 71.367188 98.628906 71.121094 98.628906 70.789062 L 102.109375 56.953125 L 108.324219 56.953125 C 113.128906 56.953125 114.039062 59.851562 114.039062 61.675781 C 114.039062 62.503906 113.625 64.078125 113.292969 65.320312 C 112.964844 66.8125 112.464844 68.714844 112.464844 69.792969 C 112.464844 75.425781 118.761719 75.425781 119.425781 75.425781 C 123.898438 75.425781 125.722656 70.125 125.722656 69.378906 C 125.722656 68.800781 125.140625 68.800781 125.140625 68.800781 C 124.644531 68.800781 124.5625 69.132812 124.394531 69.460938 C 123.152344 73.355469 120.832031 74.265625 119.675781 74.265625 C 117.933594 74.265625 117.601562 73.109375 117.601562 71.035156 C 117.601562 69.460938 117.851562 66.8125 118.101562 65.070312 C 118.183594 64.410156 118.265625 63.414062 118.265625 62.667969 C 118.265625 58.609375 114.785156 56.953125 113.378906 56.457031 Z M 113.378906 56.457031 "/>
<path fill-rule="nonzero" fill="rgb(0%, 0%, 0%)" fill-opacity="1" d="M 413.238281 37.898438 C 413.238281 37.730469 413.070312 37.316406 412.65625 37.316406 C 412.410156 37.316406 412.324219 37.402344 411.664062 38.144531 L 409.179688 41.128906 C 407.851562 38.644531 405.117188 37.316406 401.722656 37.316406 C 395.011719 37.316406 388.714844 43.367188 388.714844 49.746094 C 388.714844 53.96875 391.53125 56.371094 394.183594 57.117188 L 399.816406 58.609375 C 401.722656 59.105469 404.621094 59.851562 404.621094 64.160156 C 404.621094 68.882812 400.3125 73.769531 395.175781 73.769531 C 391.863281 73.769531 386.0625 72.609375 386.0625 66.148438 C 386.0625 64.90625 386.3125 63.664062 386.3125 63.332031 C 386.394531 63.082031 386.476562 63.082031 386.476562 62.917969 C 386.476562 62.421875 386.0625 62.421875 385.816406 62.421875 C 385.566406 62.421875 385.484375 62.421875 385.316406 62.585938 C 385.070312 62.835938 382.167969 74.765625 382.167969 74.929688 C 382.167969 75.179688 382.417969 75.425781 382.75 75.425781 C 382.996094 75.425781 383.082031 75.34375 383.660156 74.597656 L 386.230469 71.617188 C 388.464844 74.683594 392.027344 75.425781 395.09375 75.425781 C 402.21875 75.425781 408.347656 68.46875 408.347656 61.921875 C 408.347656 58.359375 406.609375 56.539062 405.863281 55.875 C 404.621094 54.632812 403.875 54.382812 399.152344 53.222656 C 397.992188 52.894531 396.171875 52.394531 395.671875 52.3125 C 394.265625 51.816406 392.441406 50.324219 392.441406 47.507812 C 392.441406 43.28125 396.667969 38.808594 401.636719 38.808594 C 405.945312 38.808594 409.179688 41.046875 409.179688 46.929688 C 409.179688 48.585938 408.929688 49.578125 408.929688 49.828125 C 408.929688 49.910156 408.929688 50.40625 409.59375 50.40625 C 410.089844 50.40625 410.171875 50.242188 410.421875 49.332031 Z M 413.238281 37.898438 "/>
<path fill-rule="nonzero" fill="rgb(0%, 0%, 0%)" fill-opacity="1" d="M 68.066406 245.894531 C 76.1875 242.832031 83.890625 233.46875 83.890625 223.363281 C 83.890625 214.996094 78.339844 209.277344 70.554688 209.277344 C 59.203125 209.277344 47.6875 221.207031 47.6875 233.386719 C 47.6875 242.085938 53.570312 247.386719 61.109375 247.386719 C 62.433594 247.386719 64.171875 247.140625 66.246094 246.558594 C 65.996094 249.871094 65.996094 249.957031 65.996094 250.617188 C 65.996094 252.277344 65.996094 256.417969 70.386719 256.417969 C 76.601562 256.417969 79.085938 246.808594 79.085938 246.226562 C 79.085938 245.894531 78.753906 245.730469 78.507812 245.730469 C 78.09375 245.730469 78.007812 245.980469 77.925781 246.308594 C 76.601562 250.039062 73.617188 251.28125 71.796875 251.28125 C 69.394531 251.28125 68.566406 249.871094 68.066406 245.894531 Z M 58.125 245.480469 C 54.066406 243.90625 52.328125 239.765625 52.328125 235.042969 C 52.328125 231.480469 53.652344 224.023438 57.628906 218.390625 C 61.441406 213.003906 66.410156 210.601562 70.222656 210.601562 C 75.441406 210.601562 79.25 214.746094 79.25 221.703125 C 79.25 226.925781 76.601562 239.1875 67.820312 244.15625 C 67.488281 242.332031 66.992188 238.441406 63.179688 238.441406 C 60.445312 238.441406 57.878906 241.089844 57.878906 243.824219 C 57.878906 244.902344 58.125 245.480469 58.125 245.480469 Z M 61.441406 246.0625 C 60.695312 246.0625 58.953125 246.0625 58.953125 243.824219 C 58.953125 241.753906 60.941406 239.601562 63.179688 239.601562 C 65.417969 239.601562 66.410156 240.925781 66.410156 244.074219 C 66.410156 244.902344 66.328125 244.902344 65.832031 245.152344 C 64.421875 245.730469 62.847656 246.0625 61.441406 246.0625 Z M 61.441406 246.0625 "/>
<path fill-rule="nonzero" fill="rgb(0%, 0%, 0%)" fill-opacity="1" d="M 103.855469 258.820312 C 103.855469 258.65625 103.855469 258.570312 102.945312 257.660156 C 96.398438 251.03125 94.742188 241.175781 94.742188 233.136719 C 94.742188 224.023438 96.730469 214.910156 103.191406 208.367188 C 103.855469 207.703125 103.855469 207.621094 103.855469 207.453125 C 103.855469 207.125 103.691406 206.957031 103.359375 206.957031 C 102.859375 206.957031 98.140625 210.519531 94.992188 217.148438 C 92.339844 222.949219 91.757812 228.746094 91.757812 233.136719 C 91.757812 237.195312 92.339844 243.578125 95.15625 249.457031 C 98.304688 255.921875 102.859375 259.316406 103.359375 259.316406 C 103.691406 259.316406 103.855469 259.152344 103.855469 258.820312 Z M 103.855469 258.820312 "/>
<path fill-rule="nonzero" fill="rgb(0%, 0%, 0%)" fill-opacity="1" d="M 126.550781 214.082031 C 126.878906 212.839844 127.046875 212.261719 128.039062 212.175781 C 128.453125 212.09375 130.195312 212.09375 131.1875 212.09375 C 134.917969 212.09375 140.714844 212.09375 140.714844 217.3125 C 140.714844 219.054688 139.886719 222.699219 137.898438 224.6875 C 136.492188 226.097656 133.757812 227.753906 129.035156 227.753906 L 123.152344 227.753906 Z M 134.089844 228.414062 C 139.390625 227.253906 145.605469 223.609375 145.605469 218.308594 C 145.605469 213.835938 140.882812 210.4375 134.003906 210.4375 L 119.09375 210.4375 C 118.097656 210.4375 117.601562 210.4375 117.601562 211.515625 C 117.601562 212.09375 118.097656 212.09375 119.09375 212.09375 C 119.175781 212.09375 120.167969 212.09375 121.082031 212.175781 C 121.992188 212.261719 122.488281 212.34375 122.488281 213.003906 C 122.488281 213.253906 122.40625 213.421875 122.242188 214 L 115.199219 242.167969 C 114.703125 244.15625 114.617188 244.570312 110.476562 244.570312 C 109.566406 244.570312 109.066406 244.570312 109.066406 245.648438 C 109.066406 246.226562 109.648438 246.226562 109.8125 246.226562 C 111.222656 246.226562 114.949219 246.0625 116.359375 246.0625 C 117.851562 246.0625 121.578125 246.226562 123.070312 246.226562 C 123.484375 246.226562 124.0625 246.226562 124.0625 245.152344 C 124.0625 244.570312 123.648438 244.570312 122.65625 244.570312 C 120.667969 244.570312 119.257812 244.570312 119.257812 243.660156 C 119.257812 243.328125 119.339844 243.078125 119.339844 242.746094 L 122.820312 228.914062 L 129.035156 228.914062 C 133.839844 228.914062 134.75 231.8125 134.75 233.636719 C 134.75 234.464844 134.335938 236.039062 134.003906 237.28125 C 133.675781 238.769531 133.175781 240.675781 133.175781 241.753906 C 133.175781 247.386719 139.472656 247.386719 140.136719 247.386719 C 144.609375 247.386719 146.433594 242.085938 146.433594 241.339844 C 146.433594 240.757812 145.851562 240.757812 145.851562 240.757812 C 145.355469 240.757812 145.273438 241.089844 145.105469 241.421875 C 143.863281 245.316406 141.542969 246.226562 140.382812 246.226562 C 138.644531 246.226562 138.3125 245.066406 138.3125 242.996094 C 138.3125 241.421875 138.5625 238.769531 138.808594 237.03125 C 138.894531 236.367188 138.976562 235.375 138.976562 234.628906 C 138.976562 230.570312 135.496094 228.914062 134.089844 228.414062 Z M 134.089844 228.414062 "/>
<path fill-rule="nonzero" fill="rgb(0%, 0%, 0%)" fill-opacity="1" d="M 162.265625 233.136719 C 162.265625 229.078125 161.6875 222.699219 158.785156 216.816406 C 155.636719 210.355469 151.164062 206.957031 150.585938 206.957031 C 150.335938 206.957031 150.085938 207.207031 150.085938 207.453125 C 150.085938 207.621094 150.085938 207.703125 151.082031 208.699219 C 156.21875 213.835938 159.199219 222.203125 159.199219 233.136719 C 159.199219 242.085938 157.296875 251.28125 150.75 257.910156 C 150.085938 258.570312 150.085938 258.65625 150.085938 258.820312 C 150.085938 259.070312 150.335938 259.316406 150.585938 259.316406 C 151.164062 259.316406 155.886719 255.753906 158.953125 249.128906 C 161.601562 243.328125 162.265625 237.527344 162.265625 233.136719 Z M 162.265625 233.136719 "/>
<path fill-rule="nonzero" fill="rgb(0%, 0%, 0%)" fill-opacity="1" d="M 361.292969 245.894531 C 369.414062 242.832031 377.117188 233.46875 377.117188 223.363281 C 377.117188 214.996094 371.566406 209.277344 363.78125 209.277344 C 352.429688 209.277344 340.914062 221.207031 340.914062 233.386719 C 340.914062 242.085938 346.796875 247.386719 354.335938 247.386719 C 355.660156 247.386719 357.398438 247.140625 359.472656 246.558594 C 359.222656 249.871094 359.222656 249.957031 359.222656 250.617188 C 359.222656 252.277344 359.222656 256.417969 363.613281 256.417969 C 369.828125 256.417969 372.3125 246.808594 372.3125 246.226562 C 372.3125 245.894531 371.980469 245.730469 371.734375 245.730469 C 371.320312 245.730469 371.234375 245.980469 371.152344 246.308594 C 369.828125 250.039062 366.84375 251.28125 365.023438 251.28125 C 362.621094 251.28125 361.792969 249.871094 361.292969 245.894531 Z M 351.351562 245.480469 C 347.292969 243.90625 345.554688 239.765625 345.554688 235.042969 C 345.554688 231.480469 346.878906 224.023438 350.855469 218.390625 C 354.667969 213.003906 359.636719 210.601562 363.449219 210.601562 C 368.667969 210.601562 372.480469 214.746094 372.480469 221.703125 C 372.480469 226.925781 369.828125 239.1875 361.046875 244.15625 C 360.714844 242.332031 360.21875 238.441406 356.40625 238.441406 C 353.671875 238.441406 351.105469 241.089844 351.105469 243.824219 C 351.105469 244.902344 351.351562 245.480469 351.351562 245.480469 Z M 354.667969 246.0625 C 353.921875 246.0625 352.179688 246.0625 352.179688 243.824219 C 352.179688 241.753906 354.167969 239.601562 356.40625 239.601562 C 358.644531 239.601562 359.636719 240.925781 359.636719 244.074219 C 359.636719 244.902344 359.554688 244.902344 359.058594 245.152344 C 357.648438 245.730469 356.074219 246.0625 354.667969 246.0625 Z M 354.667969 246.0625 "/>
<path fill-rule="nonzero" fill="rgb(0%, 0%, 0%)" fill-opacity="1" d="M 397.082031 258.820312 C 397.082031 258.65625 397.082031 258.570312 396.171875 257.660156 C 389.625 251.03125 387.96875 241.175781 387.96875 233.136719 C 387.96875 224.023438 389.957031 214.910156 396.417969 208.367188 C 397.082031 207.703125 397.082031 207.621094 397.082031 207.453125 C 397.082031 207.125 396.917969 206.957031 396.585938 206.957031 C 396.085938 206.957031 391.367188 210.519531 388.21875 217.148438 C 385.566406 222.949219 384.984375 228.746094 384.984375 233.136719 C 384.984375 237.195312 385.566406 243.578125 388.382812 249.457031 C 391.53125 255.921875 396.085938 259.316406 396.585938 259.316406 C 396.917969 259.316406 397.082031 259.152344 397.082031 258.820312 Z M 397.082031 258.820312 "/>
<path fill-rule="nonzero" fill="rgb(0%, 0%, 0%)" fill-opacity="1" d="M 433.949219 209.859375 C 433.949219 209.691406 433.78125 209.277344 433.367188 209.277344 C 433.121094 209.277344 433.035156 209.359375 432.375 210.105469 L 429.886719 213.089844 C 428.5625 210.601562 425.828125 209.277344 422.433594 209.277344 C 415.722656 209.277344 409.425781 215.324219 409.425781 221.703125 C 409.425781 225.929688 412.242188 228.332031 414.894531 229.078125 L 420.527344 230.570312 C 422.433594 231.066406 425.332031 231.8125 425.332031 236.121094 C 425.332031 240.84375 421.023438 245.730469 415.886719 245.730469 C 412.574219 245.730469 406.773438 244.570312 406.773438 238.109375 C 406.773438 236.867188 407.023438 235.625 407.023438 235.292969 C 407.105469 235.042969 407.1875 235.042969 407.1875 234.878906 C 407.1875 234.378906 406.773438 234.378906 406.527344 234.378906 C 406.277344 234.378906 406.195312 234.378906 406.027344 234.546875 C 405.78125 234.792969 402.878906 246.726562 402.878906 246.890625 C 402.878906 247.140625 403.128906 247.386719 403.460938 247.386719 C 403.707031 247.386719 403.792969 247.304688 404.371094 246.558594 L 406.941406 243.578125 C 409.175781 246.640625 412.738281 247.386719 415.804688 247.386719 C 422.929688 247.386719 429.058594 240.429688 429.058594 233.882812 C 429.058594 230.320312 427.320312 228.5 426.574219 227.835938 C 425.332031 226.59375 424.585938 226.34375 419.863281 225.183594 C 418.703125 224.851562 416.882812 224.355469 416.382812 224.273438 C 414.976562 223.777344 413.152344 222.285156 413.152344 219.46875 C 413.152344 215.242188 417.378906 210.769531 422.347656 210.769531 C 426.65625 210.769531 429.886719 213.003906 429.886719 218.886719 C 429.886719 220.546875 429.640625 221.539062 429.640625 221.789062 C 429.640625 221.871094 429.640625 222.367188 430.304688 222.367188 C 430.800781 222.367188 430.882812 222.203125 431.132812 221.289062 Z M 433.949219 209.859375 "/>
<path fill-rule="nonzero" fill="rgb(0%, 0%, 0%)" fill-opacity="1" d="M 450.453125 233.136719 C 450.453125 229.078125 449.875 222.699219 446.976562 216.816406 C 443.828125 210.355469 439.351562 206.957031 438.773438 206.957031 C 438.523438 206.957031 438.277344 207.207031 438.277344 207.453125 C 438.277344 207.621094 438.277344 207.703125 439.269531 208.699219 C 444.40625 213.835938 447.390625 222.203125 447.390625 233.136719 C 447.390625 242.085938 445.484375 251.28125 438.9375 257.910156 C 438.277344 258.570312 438.277344 258.65625 438.277344 258.820312 C 438.277344 259.070312 438.523438 259.316406 438.773438 259.316406 C 439.351562 259.316406 444.074219 255.753906 447.140625 249.128906 C 449.792969 243.328125 450.453125 237.527344 450.453125 233.136719 Z M 450.453125 233.136719 "/>
<path fill="none" stroke-width="0.39848" stroke-linecap="butt" stroke-linejoin="miter" stroke="rgb(0%, 0%, 0%)" stroke-opacity="1" stroke-miterlimit="10" d="M -19.090309 32.699283 L 19.649845 32.699283 " transform="matrix(5.259199, 0, 0, -5.259199, 250.39583, 233.132202)"/>
<path fill="none" stroke-width="0.39848" stroke-linecap="round" stroke-linejoin="round" stroke="rgb(0%, 0%, 0%)" stroke-opacity="1" stroke-miterlimit="10" d="M -2.073256 2.392115 C -1.695198 0.954901 -0.848467 0.277517 -0.00173655 0.00195798 C -0.848467 -0.278057 -1.695198 -0.955442 -2.073256 -2.392656 " transform="matrix(5.259199, 0, 0, -5.259199, 354.78257, 61.170454)"/>
<path fill-rule="nonzero" fill="rgb(0%, 0%, 0%)" fill-opacity="1" d="M 255.550781 27.214844 L 259.199219 27.214844 C 259.945312 27.214844 260.359375 27.214844 260.359375 26.386719 C 260.359375 25.890625 259.945312 25.890625 259.28125 25.890625 L 255.800781 25.890625 C 256.710938 21.25 256.960938 19.511719 257.292969 18.515625 C 257.457031 17.6875 258.285156 16.941406 259.113281 16.941406 C 259.199219 16.941406 260.191406 16.941406 260.855469 17.355469 C 259.363281 17.851562 259.28125 19.179688 259.28125 19.34375 C 259.28125 20.171875 259.859375 20.753906 260.6875 20.753906 C 261.683594 20.753906 262.84375 19.839844 262.84375 18.515625 C 262.84375 16.777344 261.019531 15.863281 259.113281 15.863281 C 257.539062 15.863281 255.71875 16.777344 254.722656 18.597656 C 253.976562 20.007812 253.730469 21.664062 252.902344 25.890625 L 250 25.890625 C 249.339844 25.890625 248.84375 25.890625 248.84375 26.71875 C 248.84375 27.214844 249.339844 27.214844 250 27.214844 L 252.652344 27.214844 C 252.652344 27.464844 250.332031 40.636719 249.421875 44.613281 C 249.257812 45.359375 248.675781 48.175781 246.855469 48.175781 C 246.855469 48.175781 245.941406 48.175781 245.28125 47.761719 C 246.769531 47.265625 246.855469 45.9375 246.855469 45.691406 C 246.855469 44.945312 246.273438 44.363281 245.445312 44.363281 C 244.449219 44.363281 243.292969 45.191406 243.292969 46.601562 C 243.292969 48.257812 245.03125 49.167969 246.855469 49.167969 C 249.257812 49.167969 250.832031 46.765625 251.246094 45.9375 C 252.570312 43.535156 253.480469 38.980469 253.480469 38.566406 Z M 255.550781 27.214844 "/>
<path fill="none" stroke-width="0.39848" stroke-linecap="butt" stroke-linejoin="miter" stroke="rgb(0%, 0%, 0%)" stroke-opacity="1" stroke-miterlimit="10" d="M -27.400153 26.362173 L -27.400153 9.223306 " transform="matrix(5.259199, 0, 0, -5.259199, 250.39583, 233.132202)"/>
<path fill="none" stroke-width="0.39848" stroke-linecap="round" stroke-linejoin="round" stroke="rgb(0%, 0%, 0%)" stroke-opacity="1" stroke-miterlimit="10" d="M -2.072023 2.388973 C -1.693965 0.955473 -0.850948 0.278089 -0.000503957 -0.001184 C -0.850948 -0.280457 -1.693965 -0.957841 -2.072023 -2.391341 " transform="matrix(0, 5.259199, 5.259199, 0, 106.299196, 185.662807)"/>
<path fill-rule="nonzero" fill="rgb(0%, 0%, 0%)" fill-opacity="1" d="M 61.429688 127.152344 C 61.429688 126.570312 60.933594 125.742188 59.9375 125.742188 C 58.945312 125.742188 57.867188 126.738281 57.867188 127.8125 C 57.867188 128.394531 58.363281 129.140625 59.359375 129.140625 C 60.433594 129.140625 61.429688 128.144531 61.429688 127.152344 Z M 53.890625 145.792969 C 53.726562 146.289062 53.558594 146.703125 53.558594 147.367188 C 53.558594 149.105469 55.050781 150.429688 57.039062 150.429688 C 60.765625 150.429688 62.339844 145.378906 62.339844 144.878906 C 62.339844 144.382812 61.84375 144.382812 61.761719 144.382812 C 61.265625 144.382812 61.179688 144.632812 61.097656 144.964844 C 60.1875 147.945312 58.613281 149.4375 57.203125 149.4375 C 56.457031 149.4375 56.292969 148.941406 56.292969 148.195312 C 56.292969 147.28125 56.542969 146.621094 56.871094 145.792969 C 57.203125 144.796875 57.617188 143.804688 58.03125 142.890625 C 58.363281 141.980469 59.691406 138.667969 59.773438 138.167969 C 59.9375 137.839844 60.019531 137.425781 60.019531 137.011719 C 60.019531 135.269531 58.53125 133.945312 56.542969 133.945312 C 52.894531 133.945312 51.238281 138.914062 51.238281 139.496094 C 51.238281 139.992188 51.738281 139.992188 51.820312 139.992188 C 52.398438 139.992188 52.398438 139.828125 52.480469 139.414062 C 53.476562 136.265625 55.050781 134.9375 56.457031 134.9375 C 57.039062 134.9375 57.371094 135.269531 57.371094 136.265625 C 57.371094 137.09375 57.121094 137.589844 56.210938 139.910156 Z M 53.890625 145.792969 "/>
<path fill-rule="nonzero" fill="rgb(0%, 0%, 0%)" fill-opacity="1" d="M 76.835938 139.546875 C 77 138.71875 77 138.632812 78.160156 138.632812 L 81.144531 138.632812 C 84.042969 138.632812 86.03125 139.378906 86.03125 141.453125 C 86.03125 142.527344 85.367188 144.019531 84.125 144.847656 C 83.878906 145.015625 82.386719 146.007812 79.238281 146.007812 L 75.179688 146.007812 Z M 82.964844 146.421875 C 85.867188 145.675781 88.929688 144.019531 88.929688 141.617188 C 88.929688 139.296875 85.699219 137.476562 81.640625 137.476562 L 72.527344 137.476562 C 72.03125 137.476562 71.617188 137.476562 71.617188 138.21875 C 71.617188 138.632812 71.945312 138.632812 72.609375 138.632812 C 72.859375 138.632812 73.6875 138.632812 74.265625 138.800781 C 74.265625 139.132812 74.265625 139.214844 74.183594 139.464844 L 70.789062 153.214844 C 70.539062 153.960938 70.539062 154.210938 68.550781 154.210938 C 67.886719 154.210938 67.472656 154.210938 67.472656 154.957031 C 67.472656 155.121094 67.640625 155.371094 67.886719 155.371094 C 68.46875 155.371094 69.128906 155.285156 69.628906 155.285156 C 70.289062 155.285156 70.953125 155.285156 71.53125 155.285156 C 72.195312 155.285156 72.859375 155.285156 73.519531 155.285156 C 74.101562 155.285156 74.679688 155.371094 75.261719 155.371094 C 75.425781 155.371094 75.925781 155.371094 75.925781 154.625 C 75.925781 154.210938 75.59375 154.210938 75.09375 154.210938 C 75.011719 154.210938 74.351562 154.210938 73.9375 154.125 C 73.273438 154.125 73.273438 154.042969 73.273438 153.878906 C 73.273438 153.796875 73.273438 153.710938 73.355469 153.464844 L 75.011719 146.835938 L 79.15625 146.835938 C 81.058594 146.835938 82.882812 147.582031 82.882812 149.15625 C 82.882812 149.488281 82.632812 150.398438 82.46875 150.980469 C 82.304688 151.640625 82.136719 152.46875 82.136719 152.96875 C 82.136719 155.453125 84.789062 155.949219 86.445312 155.949219 C 89.015625 155.949219 90.257812 153.464844 90.257812 152.800781 C 90.257812 152.386719 89.84375 152.386719 89.675781 152.386719 C 89.261719 152.386719 89.261719 152.554688 89.097656 152.882812 C 88.683594 154.210938 87.523438 155.039062 86.527344 155.039062 C 85.867188 155.039062 85.121094 154.871094 85.121094 153.132812 C 85.121094 152.636719 85.367188 151.144531 85.453125 150.480469 C 85.535156 149.734375 85.535156 149.570312 85.535156 149.488281 C 85.535156 147.417969 83.710938 146.753906 82.964844 146.421875 Z M 82.964844 146.421875 "/>
<path fill="none" stroke-width="0.39848" stroke-linecap="butt" stroke-linejoin="miter" stroke="rgb(0%, 0%, 0%)" stroke-opacity="1" stroke-miterlimit="10" d="M -11.277362 -0.000116061 L 11.836156 -0.000116061 " transform="matrix(5.259199, 0, 0, -5.259199, 250.39583, 233.132202)"/>
<path fill="none" stroke-width="0.39848" stroke-linecap="round" stroke-linejoin="round" stroke="rgb(0%, 0%, 0%)" stroke-opacity="1" stroke-miterlimit="10" d="M -2.070017 2.390784 C -1.69196 0.957284 -0.849686 0.279899 0.00150157 -0.000116061 C -0.849686 -0.279389 -1.69196 -0.956773 -2.070017 -2.390273 " transform="matrix(5.259199, 0, 0, -5.259199, 313.695228, 233.132202)"/>
<path fill-rule="nonzero" fill="rgb(0%, 0%, 0%)" fill-opacity="1" d="M 261.585938 247.742188 C 261.667969 247.164062 261.667969 247 261.667969 246.914062 C 261.667969 246.085938 261.003906 245.753906 260.425781 245.753906 C 259.597656 245.753906 258.933594 246.417969 258.769531 247.164062 C 258.105469 246.167969 256.863281 245.09375 254.957031 245.09375 C 250.402344 245.09375 245.597656 249.980469 245.597656 255.199219 C 245.597656 259.011719 248.164062 261.246094 251.148438 261.246094 C 252.886719 261.246094 254.460938 260.417969 255.785156 259.257812 L 254.957031 262.574219 C 254.542969 264.148438 254.296875 265.140625 252.886719 266.382812 C 251.3125 267.710938 249.738281 267.710938 248.828125 267.710938 C 247.085938 267.710938 246.589844 267.628906 245.925781 267.460938 C 246.839844 267.046875 247.171875 266.136719 247.171875 265.640625 C 247.171875 264.726562 246.425781 264.230469 245.679688 264.230469 C 244.683594 264.230469 243.609375 265.140625 243.609375 266.46875 C 243.609375 268.703125 246.757812 268.703125 248.828125 268.703125 C 254.625 268.703125 257.027344 265.804688 257.527344 263.734375 Z M 256.53125 256.359375 C 256.367188 256.941406 256.367188 257.023438 255.703125 257.683594 C 254.460938 259.257812 252.636719 260.253906 251.3125 260.253906 C 249.40625 260.253906 248.496094 258.679688 248.496094 256.773438 C 248.496094 255.117188 249.488281 250.976562 250.484375 249.402344 C 251.976562 246.832031 253.714844 246.085938 254.957031 246.085938 C 257.527344 246.085938 258.273438 248.820312 258.273438 249.234375 C 258.273438 249.316406 258.273438 249.316406 258.105469 249.730469 Z M 256.53125 256.359375 "/>
<path fill="none" stroke-width="0.39848" stroke-linecap="butt" stroke-linejoin="miter" stroke="rgb(0%, 0%, 0%)" stroke-opacity="1" stroke-miterlimit="10" d="M 27.876502 26.362173 L 27.876502 9.223306 " transform="matrix(5.259199, 0, 0, -5.259199, 250.39583, 233.132202)"/>
<path fill="none" stroke-width="0.39848" stroke-linecap="round" stroke-linejoin="round" stroke="rgb(0%, 0%, 0%)" stroke-opacity="1" stroke-miterlimit="10" d="M -2.072023 2.389308 C -1.693965 0.955808 -0.850948 0.278423 -0.000503957 -0.00159203 C -0.850948 -0.277151 -1.693965 -0.954535 -2.072023 -2.391749 " transform="matrix(0, 5.259199, 5.259199, 0, 397.012279, 185.662807)"/>
<path fill-rule="nonzero" fill="rgb(0%, 0%, 0%)" fill-opacity="1" d="M 355.410156 127.152344 C 355.410156 126.570312 354.910156 125.742188 353.917969 125.742188 C 352.921875 125.742188 351.847656 126.738281 351.847656 127.8125 C 351.847656 128.394531 352.34375 129.140625 353.335938 129.140625 C 354.414062 129.140625 355.410156 128.144531 355.410156 127.152344 Z M 347.871094 145.792969 C 347.703125 146.289062 347.539062 146.703125 347.539062 147.367188 C 347.539062 149.105469 349.027344 150.429688 351.015625 150.429688 C 354.746094 150.429688 356.320312 145.378906 356.320312 144.878906 C 356.320312 144.382812 355.824219 144.382812 355.738281 144.382812 C 355.242188 144.382812 355.160156 144.632812 355.078125 144.964844 C 354.164062 147.945312 352.589844 149.4375 351.183594 149.4375 C 350.4375 149.4375 350.273438 148.941406 350.273438 148.195312 C 350.273438 147.28125 350.519531 146.621094 350.851562 145.792969 C 351.183594 144.796875 351.597656 143.804688 352.011719 142.890625 C 352.34375 141.980469 353.667969 138.667969 353.75 138.167969 C 353.917969 137.839844 354 137.425781 354 137.011719 C 354 135.269531 352.507812 133.945312 350.519531 133.945312 C 346.875 133.945312 345.21875 138.914062 345.21875 139.496094 C 345.21875 139.992188 345.714844 139.992188 345.796875 139.992188 C 346.378906 139.992188 346.378906 139.828125 346.460938 139.414062 C 347.457031 136.265625 349.027344 134.9375 350.4375 134.9375 C 351.015625 134.9375 351.347656 135.269531 351.347656 136.265625 C 351.347656 137.09375 351.101562 137.589844 350.1875 139.910156 Z M 347.871094 145.792969 "/>
<path fill-rule="nonzero" fill="rgb(0%, 0%, 0%)" fill-opacity="1" d="M 379.671875 137.308594 C 379.671875 137.226562 379.671875 136.894531 379.257812 136.894531 C 379.09375 136.894531 379.09375 136.976562 378.761719 137.308594 C 378.429688 137.558594 377.683594 138.46875 377.355469 138.800781 C 376.691406 137.972656 375.28125 136.894531 372.464844 136.894531 C 368.40625 136.894531 364.84375 139.792969 364.84375 142.695312 C 364.84375 144.597656 366.253906 145.925781 368.242188 146.503906 C 368.570312 146.585938 370.726562 147.003906 371.304688 147.085938 C 373.542969 147.582031 374.039062 147.664062 374.703125 148.246094 C 375.367188 148.742188 375.695312 149.488281 375.695312 150.234375 C 375.695312 152.386719 373.210938 154.789062 369.648438 154.789062 C 367.742188 154.789062 363.851562 154.375 363.851562 151.144531 C 363.851562 150.8125 363.933594 150.398438 364.015625 150.066406 C 364.015625 149.902344 364.097656 149.902344 364.097656 149.820312 C 364.097656 149.40625 363.683594 149.40625 363.519531 149.40625 C 363.1875 149.40625 363.019531 149.488281 362.9375 149.984375 L 361.613281 155.121094 C 361.613281 155.203125 361.53125 155.535156 361.53125 155.617188 C 361.53125 155.617188 361.53125 155.949219 361.945312 155.949219 C 362.109375 155.949219 362.109375 155.949219 362.523438 155.617188 C 362.855469 155.285156 363.601562 154.457031 363.851562 154.125 C 365.339844 155.617188 367.578125 155.949219 369.648438 155.949219 C 373.957031 155.949219 377.4375 152.71875 377.4375 149.652344 C 377.4375 147.746094 376.027344 146.089844 373.875 145.59375 C 373.542969 145.511719 371.058594 145.015625 370.476562 144.929688 C 368.65625 144.515625 368.15625 144.433594 367.410156 143.855469 C 366.914062 143.441406 366.582031 142.777344 366.582031 142.113281 C 366.582031 140.042969 369.152344 137.972656 372.382812 137.972656 C 374.703125 137.972656 377.269531 138.882812 377.269531 142.113281 C 377.269531 142.527344 377.1875 142.941406 377.1875 143.027344 C 377.1875 143.441406 377.601562 143.441406 377.683594 143.441406 C 378.183594 143.441406 378.183594 143.355469 378.347656 142.859375 Z M 379.671875 137.308594 "/>
</svg>
