<?xml version="1.0" encoding="UTF-8"?>
<svg xmlns="http://www.w3.org/2000/svg" xmlns:xlink="http://www.w3.org/1999/xlink" width="395.874456" height="300" viewBox="0 0 395.874456 300">
<defs>
<clipPath id="clip-0">
<path clip-rule="nonzero" d="M 70 0.171875 L 153 0.171875 L 153 82 L 70 82 Z M 70 0.171875 "/>
</clipPath>
<clipPath id="clip-1">
<path clip-rule="nonzero" d="M 28 0.171875 L 158 0.171875 L 158 112.863281 L 28 112.863281 Z M 28 0.171875 "/>
</clipPath>
<clipPath id="clip-2">
<path clip-rule="nonzero" d="M 241 191 L 359 191 L 359 299.777344 L 241 299.777344 Z M 241 191 "/>
</clipPath>
<clipPath id="clip-3">
<path clip-rule="nonzero" d="M 232 187.191406 L 368 187.191406 L 368 299 L 232 299 Z M 232 187.191406 "/>
</clipPath>
</defs>
<path fill-rule="nonzero" fill="rgb(0%, 0%, 0%)" fill-opacity="1" d="M 45.804688 16.847656 C 45.804688 12.546875 43.265625 11.171875 41.203125 11.171875 C 37.460938 11.171875 33.847656 15.128906 33.847656 18.957031 C 33.847656 21.539062 35.480469 23.601562 38.277344 23.601562 C 39.996094 23.601562 41.976562 22.957031 44.082031 21.28125 C 44.429688 22.742188 45.332031 23.601562 46.578125 23.601562 C 47.996094 23.601562 48.859375 22.097656 48.859375 21.667969 C 48.859375 21.453125 48.6875 21.367188 48.558594 21.367188 C 48.34375 21.367188 48.257812 21.453125 48.167969 21.667969 C 47.695312 23 46.707031 23 46.664062 23 C 45.804688 23 45.804688 20.847656 45.804688 20.203125 C 45.804688 19.644531 45.804688 19.558594 46.0625 19.257812 C 48.644531 16.03125 49.203125 12.847656 49.203125 12.804688 C 49.203125 12.761719 49.203125 12.546875 48.902344 12.546875 C 48.601562 12.546875 48.601562 12.632812 48.472656 13.105469 C 47.996094 14.828125 47.09375 16.933594 45.804688 18.527344 Z M 43.953125 20.589844 C 41.546875 22.699219 39.4375 23 38.363281 23 C 36.683594 23 35.867188 21.753906 35.867188 20.03125 C 35.867188 18.65625 36.597656 15.730469 37.460938 14.3125 C 38.75 12.332031 40.253906 11.773438 41.203125 11.773438 C 43.910156 11.773438 43.910156 15.386719 43.910156 17.539062 C 43.910156 18.527344 43.910156 20.117188 43.953125 20.589844 Z M 43.953125 20.589844 "/>
<path fill-rule="nonzero" fill="rgb(0%, 0%, 0%)" fill-opacity="1" d="M 56.65625 15.191406 C 56.65625 14.675781 56.65625 14.675781 56.097656 14.675781 C 54.851562 15.878906 53.128906 15.878906 52.355469 15.878906 L 52.355469 16.570312 C 52.785156 16.570312 54.078125 16.570312 55.109375 16.054688 L 55.109375 25.816406 C 55.109375 26.460938 55.109375 26.71875 53.214844 26.71875 L 52.484375 26.71875 L 52.484375 27.40625 C 52.828125 27.40625 55.195312 27.320312 55.882812 27.320312 C 56.484375 27.320312 58.894531 27.40625 59.324219 27.40625 L 59.324219 26.71875 L 58.59375 26.71875 C 56.65625 26.71875 56.65625 26.460938 56.65625 25.816406 Z M 56.65625 15.191406 "/>
<path fill-rule="nonzero" fill="rgb(0%, 0%, 0%)" fill-opacity="1" d="M 87.011719 5.75 C 87.011719 5.105469 87.011719 5.0625 86.410156 5.0625 C 84.6875 6.828125 82.28125 6.828125 81.421875 6.828125 L 81.421875 7.644531 C 81.9375 7.644531 83.570312 7.644531 84.992188 6.957031 L 84.992188 21.148438 C 84.992188 22.140625 84.90625 22.441406 82.453125 22.441406 L 81.59375 22.441406 L 81.59375 23.300781 C 82.539062 23.214844 84.90625 23.214844 86.023438 23.214844 C 87.097656 23.214844 89.507812 23.214844 90.453125 23.300781 L 90.453125 22.441406 L 89.59375 22.441406 C 87.097656 22.441406 87.011719 22.140625 87.011719 21.148438 Z M 87.011719 5.75 "/>
<path fill-rule="nonzero" fill="rgb(0%, 0%, 0%)" fill-opacity="1" d="M 138.890625 57.640625 C 138.890625 56.992188 138.890625 56.949219 138.289062 56.949219 C 136.566406 58.714844 134.160156 58.714844 133.300781 58.714844 L 133.300781 59.53125 C 133.816406 59.53125 135.449219 59.53125 136.871094 58.84375 L 136.871094 73.039062 C 136.871094 74.027344 136.785156 74.328125 134.332031 74.328125 L 133.472656 74.328125 L 133.472656 75.1875 C 134.417969 75.101562 136.785156 75.101562 137.902344 75.101562 C 138.976562 75.101562 141.386719 75.101562 142.332031 75.1875 L 142.332031 74.328125 L 141.472656 74.328125 C 138.976562 74.328125 138.890625 74.027344 138.890625 73.039062 Z M 138.890625 57.640625 "/>
<path fill-rule="nonzero" fill="rgb(0%, 0%, 0%)" fill-opacity="1" d="M 135.867188 96.960938 C 135.867188 92.660156 133.332031 91.285156 131.265625 91.285156 C 127.523438 91.285156 123.910156 95.242188 123.910156 99.070312 C 123.910156 101.648438 125.546875 103.714844 128.339844 103.714844 C 130.0625 103.714844 132.039062 103.070312 134.148438 101.390625 C 134.492188 102.855469 135.394531 103.714844 136.640625 103.714844 C 138.0625 103.714844 138.921875 102.207031 138.921875 101.777344 C 138.921875 101.5625 138.75 101.476562 138.621094 101.476562 C 138.40625 101.476562 138.320312 101.5625 138.234375 101.777344 C 137.761719 103.113281 136.773438 103.113281 136.730469 103.113281 C 135.867188 103.113281 135.867188 100.960938 135.867188 100.316406 C 135.867188 99.757812 135.867188 99.671875 136.125 99.371094 C 138.707031 96.144531 139.265625 92.960938 139.265625 92.917969 C 139.265625 92.875 139.265625 92.660156 138.964844 92.660156 C 138.664062 92.660156 138.664062 92.746094 138.535156 93.21875 C 138.0625 94.941406 137.160156 97.046875 135.867188 98.640625 Z M 134.019531 100.703125 C 131.609375 102.8125 129.503906 103.113281 128.425781 103.113281 C 126.75 103.113281 125.933594 101.863281 125.933594 100.144531 C 125.933594 98.769531 126.664062 95.84375 127.523438 94.421875 C 128.8125 92.445312 130.320312 91.886719 131.265625 91.886719 C 133.976562 91.886719 133.976562 95.5 133.976562 97.648438 C 133.976562 98.640625 133.976562 100.230469 134.019531 100.703125 Z M 134.019531 100.703125 "/>
<path fill-rule="nonzero" fill="rgb(0%, 0%, 0%)" fill-opacity="1" d="M 146.722656 95.304688 C 146.722656 94.789062 146.722656 94.789062 146.164062 94.789062 C 144.914062 95.992188 143.195312 95.992188 142.421875 95.992188 L 142.421875 96.679688 C 142.851562 96.679688 144.140625 96.679688 145.171875 96.164062 L 145.171875 105.929688 C 145.171875 106.574219 145.171875 106.832031 143.28125 106.832031 L 142.550781 106.832031 L 142.550781 107.519531 C 142.894531 107.519531 145.257812 107.433594 145.949219 107.433594 C 146.550781 107.433594 148.957031 107.519531 149.386719 107.519531 L 149.386719 106.832031 L 148.65625 106.832031 C 146.722656 106.832031 146.722656 106.574219 146.722656 105.929688 Z M 146.722656 95.304688 "/>
<path fill-rule="nonzero" fill="rgb(0%, 0%, 0%)" fill-opacity="1" d="M 250.582031 203.621094 C 250.582031 199.320312 248.042969 197.945312 245.980469 197.945312 C 242.238281 197.945312 238.625 201.902344 238.625 205.730469 C 238.625 208.308594 240.257812 210.375 243.054688 210.375 C 244.773438 210.375 246.753906 209.730469 248.859375 208.050781 C 249.203125 209.515625 250.109375 210.375 251.355469 210.375 C 252.773438 210.375 253.636719 208.871094 253.636719 208.441406 C 253.636719 208.222656 253.464844 208.136719 253.335938 208.136719 C 253.117188 208.136719 253.03125 208.222656 252.945312 208.441406 C 252.472656 209.773438 251.484375 209.773438 251.441406 209.773438 C 250.582031 209.773438 250.582031 207.621094 250.582031 206.976562 C 250.582031 206.417969 250.582031 206.332031 250.839844 206.03125 C 253.421875 202.804688 253.980469 199.621094 253.980469 199.578125 C 253.980469 199.535156 253.980469 199.320312 253.679688 199.320312 C 253.378906 199.320312 253.378906 199.40625 253.246094 199.878906 C 252.773438 201.601562 251.871094 203.707031 250.582031 205.300781 Z M 248.730469 207.363281 C 246.324219 209.472656 244.214844 209.773438 243.140625 209.773438 C 241.460938 209.773438 240.644531 208.527344 240.644531 206.804688 C 240.644531 205.429688 241.375 202.503906 242.238281 201.085938 C 243.527344 199.105469 245.03125 198.546875 245.980469 198.546875 C 248.6875 198.546875 248.6875 202.160156 248.6875 204.308594 C 248.6875 205.300781 248.6875 206.890625 248.730469 207.363281 Z M 248.730469 207.363281 "/>
<path fill-rule="nonzero" fill="rgb(0%, 0%, 0%)" fill-opacity="1" d="M 257.347656 212.980469 C 257.304688 213.238281 257.175781 213.710938 257.175781 213.753906 C 257.175781 214.183594 257.519531 214.355469 257.820312 214.355469 C 258.164062 214.355469 258.464844 214.140625 258.59375 213.96875 C 258.683594 213.796875 258.8125 213.152344 258.941406 212.765625 C 259.027344 212.421875 259.242188 211.515625 259.328125 211.042969 C 259.457031 210.613281 259.585938 210.183594 259.671875 209.753906 C 259.886719 208.980469 259.929688 208.808594 260.488281 208.03125 C 261.003906 207.257812 261.90625 206.269531 263.371094 206.269531 C 264.445312 206.269531 264.488281 207.257812 264.488281 207.601562 C 264.488281 208.765625 263.671875 210.871094 263.371094 211.6875 C 263.15625 212.25 263.070312 212.421875 263.070312 212.722656 C 263.070312 213.753906 263.886719 214.355469 264.875 214.355469 C 266.8125 214.355469 267.628906 211.730469 267.628906 211.429688 C 267.628906 211.171875 267.414062 211.171875 267.328125 211.171875 C 267.070312 211.171875 267.070312 211.300781 266.984375 211.515625 C 266.554688 213.066406 265.691406 213.839844 264.960938 213.839844 C 264.53125 213.839844 264.445312 213.582031 264.445312 213.152344 C 264.445312 212.722656 264.574219 212.464844 264.917969 211.601562 C 265.132812 211 265.90625 208.980469 265.90625 207.902344 C 265.90625 206.054688 264.445312 205.710938 263.414062 205.710938 C 261.820312 205.710938 260.746094 206.699219 260.1875 207.472656 C 260.058594 206.140625 258.941406 205.710938 258.121094 205.710938 C 257.304688 205.710938 256.875 206.3125 256.617188 206.742188 C 256.1875 207.472656 255.929688 208.550781 255.929688 208.679688 C 255.929688 208.894531 256.1875 208.894531 256.273438 208.894531 C 256.53125 208.894531 256.53125 208.851562 256.660156 208.335938 C 256.960938 207.214844 257.347656 206.269531 258.078125 206.269531 C 258.59375 206.269531 258.726562 206.699219 258.726562 207.214844 C 258.726562 207.558594 258.550781 208.292969 258.378906 208.808594 C 258.25 209.324219 258.078125 210.097656 257.992188 210.527344 Z M 257.347656 212.980469 "/>
<path fill-rule="nonzero" fill="rgb(0%, 0%, 0%)" fill-opacity="1" d="M 294.410156 192.523438 C 294.410156 191.878906 294.410156 191.835938 293.808594 191.835938 C 292.085938 193.601562 289.675781 193.601562 288.816406 193.601562 L 288.816406 194.417969 C 289.332031 194.417969 290.96875 194.417969 292.386719 193.730469 L 292.386719 207.921875 C 292.386719 208.914062 292.300781 209.214844 289.851562 209.214844 L 288.988281 209.214844 L 288.988281 210.074219 C 289.9375 209.988281 292.300781 209.988281 293.417969 209.988281 C 294.496094 209.988281 296.902344 209.988281 297.851562 210.074219 L 297.851562 209.214844 L 296.988281 209.214844 C 294.496094 209.214844 294.410156 208.914062 294.410156 207.921875 Z M 294.410156 192.523438 "/>
<path fill-rule="nonzero" fill="rgb(0%, 0%, 0%)" fill-opacity="1" d="M 347.597656 244.410156 C 347.597656 243.765625 347.597656 243.722656 346.996094 243.722656 C 345.277344 245.488281 342.867188 245.488281 342.007812 245.488281 L 342.007812 246.304688 C 342.523438 246.304688 344.15625 246.304688 345.578125 245.617188 L 345.578125 259.808594 C 345.578125 260.800781 345.492188 261.101562 343.039062 261.101562 L 342.179688 261.101562 L 342.179688 261.960938 C 343.125 261.875 345.492188 261.875 346.609375 261.875 C 347.683594 261.875 350.09375 261.875 351.039062 261.960938 L 351.039062 261.101562 L 350.179688 261.101562 C 347.683594 261.101562 347.597656 260.800781 347.597656 259.808594 Z M 347.597656 244.410156 "/>
<path fill-rule="nonzero" fill="rgb(0%, 0%, 0%)" fill-opacity="1" d="M 343.265625 283.734375 C 343.265625 279.433594 340.726562 278.058594 338.664062 278.058594 C 334.921875 278.058594 331.308594 282.015625 331.308594 285.84375 C 331.308594 288.421875 332.941406 290.488281 335.738281 290.488281 C 337.457031 290.488281 339.4375 289.84375 341.542969 288.164062 C 341.890625 289.628906 342.792969 290.488281 344.039062 290.488281 C 345.457031 290.488281 346.320312 288.980469 346.320312 288.550781 C 346.320312 288.335938 346.148438 288.25 346.019531 288.25 C 345.804688 288.25 345.71875 288.335938 345.632812 288.550781 C 345.15625 289.886719 344.167969 289.886719 344.125 289.886719 C 343.265625 289.886719 343.265625 287.734375 343.265625 287.089844 C 343.265625 286.53125 343.265625 286.445312 343.523438 286.144531 C 346.105469 282.917969 346.664062 279.734375 346.664062 279.691406 C 346.664062 279.648438 346.664062 279.433594 346.363281 279.433594 C 346.0625 279.433594 346.0625 279.519531 345.933594 279.992188 C 345.457031 281.710938 344.554688 283.820312 343.265625 285.410156 Z M 341.414062 287.476562 C 339.007812 289.585938 336.898438 289.886719 335.824219 289.886719 C 334.148438 289.886719 333.328125 288.636719 333.328125 286.917969 C 333.328125 285.539062 334.0625 282.617188 334.921875 281.195312 C 336.210938 279.21875 337.714844 278.660156 338.664062 278.660156 C 341.371094 278.660156 341.371094 282.273438 341.371094 284.421875 C 341.371094 285.410156 341.371094 287.003906 341.414062 287.476562 Z M 341.414062 287.476562 "/>
<path fill-rule="nonzero" fill="rgb(0%, 0%, 0%)" fill-opacity="1" d="M 350.03125 293.089844 C 349.988281 293.347656 349.859375 293.820312 349.859375 293.863281 C 349.859375 294.292969 350.203125 294.464844 350.503906 294.464844 C 350.851562 294.464844 351.152344 294.25 351.28125 294.078125 C 351.367188 293.90625 351.496094 293.261719 351.625 292.875 C 351.710938 292.53125 351.925781 291.625 352.011719 291.152344 C 352.140625 290.722656 352.269531 290.292969 352.355469 289.863281 C 352.570312 289.089844 352.613281 288.917969 353.171875 288.144531 C 353.6875 287.367188 354.589844 286.378906 356.054688 286.378906 C 357.128906 286.378906 357.171875 287.367188 357.171875 287.710938 C 357.171875 288.875 356.355469 290.980469 356.054688 291.796875 C 355.839844 292.359375 355.753906 292.53125 355.753906 292.832031 C 355.753906 293.863281 356.570312 294.464844 357.558594 294.464844 C 359.496094 294.464844 360.3125 291.839844 360.3125 291.539062 C 360.3125 291.28125 360.097656 291.28125 360.011719 291.28125 C 359.753906 291.28125 359.753906 291.410156 359.667969 291.625 C 359.238281 293.175781 358.375 293.949219 357.644531 293.949219 C 357.214844 293.949219 357.128906 293.691406 357.128906 293.261719 C 357.128906 292.832031 357.257812 292.574219 357.601562 291.710938 C 357.816406 291.109375 358.59375 289.089844 358.59375 288.015625 C 358.59375 286.164062 357.128906 285.820312 356.097656 285.820312 C 354.503906 285.820312 353.429688 286.808594 352.871094 287.582031 C 352.742188 286.25 351.625 285.820312 350.808594 285.820312 C 349.988281 285.820312 349.558594 286.421875 349.300781 286.851562 C 348.871094 287.582031 348.613281 288.660156 348.613281 288.789062 C 348.613281 289.003906 348.871094 289.003906 348.957031 289.003906 C 349.214844 289.003906 349.214844 288.960938 349.34375 288.445312 C 349.644531 287.324219 350.03125 286.378906 350.761719 286.378906 C 351.28125 286.378906 351.410156 286.808594 351.410156 287.324219 C 351.410156 287.667969 351.238281 288.402344 351.066406 288.917969 C 350.9375 289.433594 350.761719 290.207031 350.675781 290.636719 Z M 350.03125 293.089844 "/>
<path fill-rule="nonzero" fill="rgb(0%, 0%, 0%)" fill-opacity="1" d="M 10.238281 51.644531 C 10.839844 51.644531 11.011719 51.644531 11.011719 51.300781 C 11.054688 32.074219 13.289062 16.117188 22.882812 2.738281 C 23.054688 2.480469 23.054688 2.4375 23.054688 2.394531 C 23.054688 2.09375 22.882812 2.09375 22.453125 2.09375 C 22.023438 2.09375 21.9375 2.09375 21.894531 2.136719 C 21.765625 2.222656 18.324219 6.222656 15.527344 11.730469 C 11.914062 18.996094 9.636719 27.300781 8.644531 37.234375 C 8.558594 38.09375 7.957031 43.816406 7.957031 50.3125 L 7.957031 51.34375 C 8 51.644531 8.171875 51.644531 8.730469 51.644531 Z M 10.238281 51.644531 "/>
<path fill-rule="nonzero" fill="rgb(0%, 0%, 0%)" fill-opacity="1" d="M 11.011719 51.84375 C 11.011719 51.113281 10.96875 51.113281 10.238281 51.113281 L 8.730469 51.113281 C 8 51.113281 7.957031 51.113281 7.957031 51.84375 L 7.957031 67.328125 C 7.957031 68.0625 8 68.105469 8.730469 68.105469 L 10.238281 68.105469 C 10.96875 68.105469 11.011719 68.0625 11.011719 67.328125 Z M 11.011719 51.84375 "/>
<path fill-rule="nonzero" fill="rgb(0%, 0%, 0%)" fill-opacity="1" d="M 11.011719 68.28125 C 11.011719 67.546875 10.96875 67.546875 10.238281 67.546875 L 8.730469 67.546875 C 8 67.546875 7.957031 67.546875 7.957031 68.28125 L 7.957031 83.765625 C 7.957031 84.496094 8 84.539062 8.730469 84.539062 L 10.238281 84.539062 C 10.96875 84.539062 11.011719 84.496094 11.011719 83.765625 Z M 11.011719 68.28125 "/>
<path fill-rule="nonzero" fill="rgb(0%, 0%, 0%)" fill-opacity="1" d="M 11.011719 84.710938 C 11.011719 83.980469 10.96875 83.980469 10.238281 83.980469 L 8.730469 83.980469 C 8 83.980469 7.957031 83.980469 7.957031 84.710938 L 7.957031 100.195312 C 7.957031 100.925781 8 100.96875 8.730469 100.96875 L 10.238281 100.96875 C 10.96875 100.96875 11.011719 100.925781 11.011719 100.195312 Z M 11.011719 84.710938 "/>
<path fill-rule="nonzero" fill="rgb(0%, 0%, 0%)" fill-opacity="1" d="M 11.011719 101.144531 C 11.011719 100.414062 10.96875 100.414062 10.238281 100.414062 L 8.730469 100.414062 C 8 100.414062 7.957031 100.414062 7.957031 101.144531 L 7.957031 116.628906 C 7.957031 117.359375 8 117.402344 8.730469 117.402344 L 10.238281 117.402344 C 10.96875 117.402344 11.011719 117.359375 11.011719 116.628906 Z M 11.011719 101.144531 "/>
<path fill-rule="nonzero" fill="rgb(0%, 0%, 0%)" fill-opacity="1" d="M 11.011719 117.578125 C 11.011719 116.847656 10.96875 116.847656 10.238281 116.847656 L 8.730469 116.847656 C 8 116.847656 7.957031 116.847656 7.957031 117.578125 L 7.957031 133.0625 C 7.957031 133.796875 8 133.839844 8.730469 133.839844 L 10.238281 133.839844 C 10.96875 133.839844 11.011719 133.796875 11.011719 133.0625 Z M 11.011719 117.578125 "/>
<path fill-rule="nonzero" fill="rgb(0%, 0%, 0%)" fill-opacity="1" d="M 11.011719 134.011719 C 11.011719 133.28125 10.96875 133.28125 10.238281 133.28125 L 8.730469 133.28125 C 8 133.28125 7.957031 133.28125 7.957031 134.011719 L 7.957031 149.496094 C 7.957031 150.226562 8 150.269531 8.730469 150.269531 L 10.238281 150.269531 C 10.96875 150.269531 11.011719 150.226562 11.011719 149.496094 Z M 11.011719 134.011719 "/>
<path fill-rule="nonzero" fill="rgb(0%, 0%, 0%)" fill-opacity="1" d="M 11.011719 150.445312 C 11.011719 149.714844 10.96875 149.714844 10.238281 149.714844 L 8.730469 149.714844 C 8 149.714844 7.957031 149.714844 7.957031 150.445312 L 7.957031 165.929688 C 7.957031 166.660156 8 166.703125 8.730469 166.703125 L 10.238281 166.703125 C 10.96875 166.703125 11.011719 166.660156 11.011719 165.929688 Z M 11.011719 150.445312 "/>
<path fill-rule="nonzero" fill="rgb(0%, 0%, 0%)" fill-opacity="1" d="M 11.011719 166.878906 C 11.011719 166.148438 10.96875 166.148438 10.238281 166.148438 L 8.730469 166.148438 C 8 166.148438 7.957031 166.148438 7.957031 166.878906 L 7.957031 182.363281 C 7.957031 183.09375 8 183.136719 8.730469 183.136719 L 10.238281 183.136719 C 10.96875 183.136719 11.011719 183.09375 11.011719 182.363281 Z M 11.011719 166.878906 "/>
<path fill-rule="nonzero" fill="rgb(0%, 0%, 0%)" fill-opacity="1" d="M 11.011719 183.3125 C 11.011719 182.582031 10.96875 182.582031 10.238281 182.582031 L 8.730469 182.582031 C 8 182.582031 7.957031 182.582031 7.957031 183.3125 L 7.957031 198.796875 C 7.957031 199.527344 8 199.570312 8.730469 199.570312 L 10.238281 199.570312 C 10.96875 199.570312 11.011719 199.527344 11.011719 198.796875 Z M 11.011719 183.3125 "/>
<path fill-rule="nonzero" fill="rgb(0%, 0%, 0%)" fill-opacity="1" d="M 11.011719 199.746094 C 11.011719 199.015625 10.96875 199.015625 10.238281 199.015625 L 8.730469 199.015625 C 8 199.015625 7.957031 199.015625 7.957031 199.746094 L 7.957031 215.230469 C 7.957031 215.960938 8 216.003906 8.730469 216.003906 L 10.238281 216.003906 C 10.96875 216.003906 11.011719 215.960938 11.011719 215.230469 Z M 11.011719 199.746094 "/>
<path fill-rule="nonzero" fill="rgb(0%, 0%, 0%)" fill-opacity="1" d="M 11.011719 216.179688 C 11.011719 215.449219 10.96875 215.449219 10.238281 215.449219 L 8.730469 215.449219 C 8 215.449219 7.957031 215.449219 7.957031 216.179688 L 7.957031 231.664062 C 7.957031 232.394531 8 232.4375 8.730469 232.4375 L 10.238281 232.4375 C 10.96875 232.4375 11.011719 232.394531 11.011719 231.664062 Z M 11.011719 216.179688 "/>
<path fill-rule="nonzero" fill="rgb(0%, 0%, 0%)" fill-opacity="1" d="M 11.011719 232.613281 C 11.011719 231.878906 10.96875 231.878906 10.238281 231.878906 L 8.730469 231.878906 C 8 231.878906 7.957031 231.878906 7.957031 232.613281 L 7.957031 248.097656 C 7.957031 248.828125 8 248.871094 8.730469 248.871094 L 10.238281 248.871094 C 10.96875 248.871094 11.011719 248.828125 11.011719 248.097656 Z M 11.011719 232.613281 "/>
<path fill-rule="nonzero" fill="rgb(0%, 0%, 0%)" fill-opacity="1" d="M 8.730469 248.289062 C 8.171875 248.289062 8 248.289062 7.957031 248.589844 L 7.957031 249.667969 C 7.957031 266.398438 10.96875 276.207031 11.828125 279 C 13.679688 285.066406 16.730469 291.476562 21.292969 297.109375 C 21.679688 297.625 21.808594 297.753906 21.9375 297.796875 C 21.980469 297.839844 22.023438 297.839844 22.453125 297.839844 C 22.882812 297.839844 23.054688 297.839844 23.054688 297.582031 C 23.054688 297.539062 23.054688 297.496094 22.925781 297.238281 C 13.765625 284.59375 11.054688 269.324219 11.011719 248.675781 C 11.011719 248.289062 10.839844 248.289062 10.238281 248.289062 Z M 8.730469 248.289062 "/>
<path fill-rule="nonzero" fill="rgb(0%, 0%, 0%)" fill-opacity="1" d="M 387.339844 50.3125 C 387.339844 33.535156 384.371094 23.730469 383.511719 20.976562 C 381.664062 14.910156 378.609375 8.503906 374.050781 2.824219 C 373.617188 2.351562 373.53125 2.222656 373.402344 2.136719 C 373.359375 2.136719 373.316406 2.09375 372.886719 2.09375 C 372.457031 2.09375 372.242188 2.09375 372.242188 2.394531 C 372.242188 2.4375 372.242188 2.480469 372.628906 2.996094 C 382.136719 16.289062 384.285156 32.71875 384.328125 51.300781 C 384.328125 51.644531 384.457031 51.644531 385.058594 51.644531 L 386.609375 51.644531 C 387.167969 51.644531 387.339844 51.644531 387.339844 51.34375 Z M 387.339844 50.3125 "/>
<path fill-rule="nonzero" fill="rgb(0%, 0%, 0%)" fill-opacity="1" d="M 387.339844 51.84375 C 387.339844 51.113281 387.339844 51.113281 386.609375 51.113281 L 385.058594 51.113281 C 384.328125 51.113281 384.328125 51.113281 384.328125 51.84375 L 384.328125 67.328125 C 384.328125 68.0625 384.328125 68.105469 385.058594 68.105469 L 386.609375 68.105469 C 387.339844 68.105469 387.339844 68.0625 387.339844 67.328125 Z M 387.339844 51.84375 "/>
<path fill-rule="nonzero" fill="rgb(0%, 0%, 0%)" fill-opacity="1" d="M 387.339844 68.28125 C 387.339844 67.546875 387.339844 67.546875 386.609375 67.546875 L 385.058594 67.546875 C 384.328125 67.546875 384.328125 67.546875 384.328125 68.28125 L 384.328125 83.765625 C 384.328125 84.496094 384.328125 84.539062 385.058594 84.539062 L 386.609375 84.539062 C 387.339844 84.539062 387.339844 84.496094 387.339844 83.765625 Z M 387.339844 68.28125 "/>
<path fill-rule="nonzero" fill="rgb(0%, 0%, 0%)" fill-opacity="1" d="M 387.339844 84.710938 C 387.339844 83.980469 387.339844 83.980469 386.609375 83.980469 L 385.058594 83.980469 C 384.328125 83.980469 384.328125 83.980469 384.328125 84.710938 L 384.328125 100.195312 C 384.328125 100.925781 384.328125 100.96875 385.058594 100.96875 L 386.609375 100.96875 C 387.339844 100.96875 387.339844 100.925781 387.339844 100.195312 Z M 387.339844 84.710938 "/>
<path fill-rule="nonzero" fill="rgb(0%, 0%, 0%)" fill-opacity="1" d="M 387.339844 101.144531 C 387.339844 100.414062 387.339844 100.414062 386.609375 100.414062 L 385.058594 100.414062 C 384.328125 100.414062 384.328125 100.414062 384.328125 101.144531 L 384.328125 116.628906 C 384.328125 117.359375 384.328125 117.402344 385.058594 117.402344 L 386.609375 117.402344 C 387.339844 117.402344 387.339844 117.359375 387.339844 116.628906 Z M 387.339844 101.144531 "/>
<path fill-rule="nonzero" fill="rgb(0%, 0%, 0%)" fill-opacity="1" d="M 387.339844 117.578125 C 387.339844 116.847656 387.339844 116.847656 386.609375 116.847656 L 385.058594 116.847656 C 384.328125 116.847656 384.328125 116.847656 384.328125 117.578125 L 384.328125 133.0625 C 384.328125 133.796875 384.328125 133.839844 385.058594 133.839844 L 386.609375 133.839844 C 387.339844 133.839844 387.339844 133.796875 387.339844 133.0625 Z M 387.339844 117.578125 "/>
<path fill-rule="nonzero" fill="rgb(0%, 0%, 0%)" fill-opacity="1" d="M 387.339844 134.011719 C 387.339844 133.28125 387.339844 133.28125 386.609375 133.28125 L 385.058594 133.28125 C 384.328125 133.28125 384.328125 133.28125 384.328125 134.011719 L 384.328125 149.496094 C 384.328125 150.226562 384.328125 150.269531 385.058594 150.269531 L 386.609375 150.269531 C 387.339844 150.269531 387.339844 150.226562 387.339844 149.496094 Z M 387.339844 134.011719 "/>
<path fill-rule="nonzero" fill="rgb(0%, 0%, 0%)" fill-opacity="1" d="M 387.339844 150.445312 C 387.339844 149.714844 387.339844 149.714844 386.609375 149.714844 L 385.058594 149.714844 C 384.328125 149.714844 384.328125 149.714844 384.328125 150.445312 L 384.328125 165.929688 C 384.328125 166.660156 384.328125 166.703125 385.058594 166.703125 L 386.609375 166.703125 C 387.339844 166.703125 387.339844 166.660156 387.339844 165.929688 Z M 387.339844 150.445312 "/>
<path fill-rule="nonzero" fill="rgb(0%, 0%, 0%)" fill-opacity="1" d="M 387.339844 166.878906 C 387.339844 166.148438 387.339844 166.148438 386.609375 166.148438 L 385.058594 166.148438 C 384.328125 166.148438 384.328125 166.148438 384.328125 166.878906 L 384.328125 182.363281 C 384.328125 183.09375 384.328125 183.136719 385.058594 183.136719 L 386.609375 183.136719 C 387.339844 183.136719 387.339844 183.09375 387.339844 182.363281 Z M 387.339844 166.878906 "/>
<path fill-rule="nonzero" fill="rgb(0%, 0%, 0%)" fill-opacity="1" d="M 387.339844 183.3125 C 387.339844 182.582031 387.339844 182.582031 386.609375 182.582031 L 385.058594 182.582031 C 384.328125 182.582031 384.328125 182.582031 384.328125 183.3125 L 384.328125 198.796875 C 384.328125 199.527344 384.328125 199.570312 385.058594 199.570312 L 386.609375 199.570312 C 387.339844 199.570312 387.339844 199.527344 387.339844 198.796875 Z M 387.339844 183.3125 "/>
<path fill-rule="nonzero" fill="rgb(0%, 0%, 0%)" fill-opacity="1" d="M 387.339844 199.746094 C 387.339844 199.015625 387.339844 199.015625 386.609375 199.015625 L 385.058594 199.015625 C 384.328125 199.015625 384.328125 199.015625 384.328125 199.746094 L 384.328125 215.230469 C 384.328125 215.960938 384.328125 216.003906 385.058594 216.003906 L 386.609375 216.003906 C 387.339844 216.003906 387.339844 215.960938 387.339844 215.230469 Z M 387.339844 199.746094 "/>
<path fill-rule="nonzero" fill="rgb(0%, 0%, 0%)" fill-opacity="1" d="M 387.339844 216.179688 C 387.339844 215.449219 387.339844 215.449219 386.609375 215.449219 L 385.058594 215.449219 C 384.328125 215.449219 384.328125 215.449219 384.328125 216.179688 L 384.328125 231.664062 C 384.328125 232.394531 384.328125 232.4375 385.058594 232.4375 L 386.609375 232.4375 C 387.339844 232.4375 387.339844 232.394531 387.339844 231.664062 Z M 387.339844 216.179688 "/>
<path fill-rule="nonzero" fill="rgb(0%, 0%, 0%)" fill-opacity="1" d="M 387.339844 232.613281 C 387.339844 231.878906 387.339844 231.878906 386.609375 231.878906 L 385.058594 231.878906 C 384.328125 231.878906 384.328125 231.878906 384.328125 232.613281 L 384.328125 248.097656 C 384.328125 248.828125 384.328125 248.871094 385.058594 248.871094 L 386.609375 248.871094 C 387.339844 248.871094 387.339844 248.828125 387.339844 248.097656 Z M 387.339844 232.613281 "/>
<path fill-rule="nonzero" fill="rgb(0%, 0%, 0%)" fill-opacity="1" d="M 387.339844 248.589844 C 387.339844 248.289062 387.167969 248.289062 386.609375 248.289062 L 385.058594 248.289062 C 384.457031 248.289062 384.328125 248.289062 384.328125 248.675781 C 384.328125 251.515625 384.285156 258.011719 383.554688 264.851562 C 382.09375 279 378.4375 288.808594 372.457031 297.238281 C 372.242188 297.496094 372.242188 297.539062 372.242188 297.582031 C 372.242188 297.839844 372.457031 297.839844 372.886719 297.839844 C 373.316406 297.839844 373.402344 297.839844 373.445312 297.796875 C 373.53125 297.710938 377.015625 293.710938 379.8125 288.207031 C 383.425781 280.980469 385.707031 272.679688 386.695312 262.699219 C 386.78125 261.839844 387.339844 256.160156 387.339844 249.667969 Z M 387.339844 248.589844 "/>
<path fill="none" stroke-width="0.79701" stroke-linecap="butt" stroke-linejoin="miter" stroke="rgb(0%, 0%, 0%)" stroke-opacity="1" stroke-dasharray="0.79701 1.99255" stroke-miterlimit="10" d="M -47.785543 41.433522 L -28.607594 24.375563 " transform="matrix(2.749129, 0, 0, -2.749129, 197.673315, 149.972508)"/>
<path fill-rule="nonzero" fill="rgb(0%, 0%, 0%)" fill-opacity="1" d="M 76.402344 67.699219 C 76.058594 67.914062 75.5 68.257812 75.457031 68.34375 C 75.152344 68.644531 75.28125 69.03125 75.5 69.203125 C 75.800781 69.460938 76.1875 69.503906 76.316406 69.417969 C 76.53125 69.375 77.089844 68.988281 77.390625 68.773438 C 77.691406 68.558594 78.464844 68.042969 78.894531 67.742188 C 79.195312 67.484375 79.628906 67.269531 79.929688 67.011719 C 80.660156 66.539062 80.703125 66.496094 81.390625 66.324219 C 82.464844 65.976562 83.886719 65.890625 85.003906 66.839844 C 85.777344 67.570312 85.304688 68.214844 85.003906 68.601562 C 84.230469 69.460938 82.207031 70.496094 81.433594 70.882812 C 80.917969 71.183594 80.703125 71.226562 80.53125 71.484375 C 79.84375 72.257812 80.015625 73.246094 80.746094 73.894531 C 82.207031 75.183594 84.574219 73.765625 84.789062 73.546875 C 84.960938 73.375 84.832031 73.203125 84.746094 73.160156 C 84.574219 72.988281 84.488281 73.074219 84.230469 73.203125 C 82.894531 74.066406 81.734375 74.066406 81.175781 73.589844 C 80.832031 73.289062 80.960938 73.074219 81.261719 72.730469 C 81.5625 72.429688 81.820312 72.300781 82.636719 71.871094 C 83.199219 71.570312 85.089844 70.582031 85.820312 69.761719 C 86.035156 69.546875 86.550781 68.902344 86.421875 68.085938 C 86.292969 67.65625 86.121094 67.097656 85.433594 66.496094 C 84.144531 65.332031 82.59375 65.503906 81.605469 65.632812 C 82.59375 64.34375 81.777344 63.226562 81.046875 62.582031 C 79.84375 61.503906 78.378906 61.503906 77.476562 61.71875 C 78.207031 60.644531 77.691406 59.570312 77.089844 59.054688 C 76.488281 58.496094 75.757812 58.667969 75.28125 58.839844 C 74.464844 59.054688 73.5625 59.699219 73.476562 59.785156 C 73.347656 59.957031 73.519531 60.128906 73.605469 60.171875 C 73.777344 60.34375 73.777344 60.300781 74.207031 60 C 75.238281 59.398438 76.101562 58.96875 76.660156 59.441406 C 77.046875 59.785156 76.875 60.171875 76.53125 60.558594 C 76.273438 60.816406 75.671875 61.246094 75.195312 61.546875 C 74.765625 61.847656 74.121094 62.28125 73.777344 62.539062 L 71.671875 63.957031 C 71.496094 64.128906 71.023438 64.386719 71.023438 64.429688 C 70.722656 64.730469 70.851562 65.117188 71.109375 65.289062 C 71.367188 65.546875 71.757812 65.546875 71.929688 65.503906 C 72.144531 65.417969 72.660156 65.03125 73.003906 64.816406 C 73.261719 64.644531 74.035156 64.128906 74.464844 63.785156 C 74.808594 63.570312 75.195312 63.355469 75.542969 63.097656 C 76.1875 62.667969 76.359375 62.582031 77.304688 62.324219 C 78.207031 62.105469 79.542969 61.976562 80.617188 62.96875 C 81.433594 63.699219 80.789062 64.429688 80.574219 64.6875 C 80.230469 65.03125 80.058594 65.203125 79.109375 65.804688 Z M 76.402344 67.699219 "/>
<path fill-rule="nonzero" fill="rgb(0%, 0%, 0%)" fill-opacity="1" d="M 91.683594 75.390625 C 91.984375 75.089844 91.941406 75.089844 91.597656 74.746094 C 90.261719 74.789062 89.144531 73.753906 88.929688 73.582031 L 88.757812 73.410156 L 88.371094 73.886719 L 88.542969 74.058594 C 88.757812 74.273438 89.445312 74.832031 90.261719 75.046875 L 85.703125 80.164062 C 85.402344 80.464844 85.316406 80.59375 84.285156 79.691406 L 83.769531 79.21875 L 83.382812 79.648438 C 83.984375 80.078125 84.84375 80.894531 85.488281 81.410156 C 86.046875 81.929688 86.996094 82.789062 87.511719 83.304688 L 87.898438 82.875 L 87.382812 82.402344 C 86.304688 81.453125 86.390625 81.324219 86.691406 81.023438 Z M 91.683594 75.390625 "/>
<g clip-path="url(#clip-0)">
<path fill="none" stroke-width="0.79701" stroke-linecap="butt" stroke-linejoin="miter" stroke="rgb(0%, 0%, 0%)" stroke-opacity="1" stroke-dasharray="0.79701 1.99255" stroke-miterlimit="10" d="M -34.940566 43.542144 L -27.56323 36.160545 " transform="matrix(2.749129, 0, 0, -2.749129, 197.673315, 149.972508)"/>
</g>
<g clip-path="url(#clip-1)">
<path fill="none" stroke-width="0.3985" stroke-linecap="butt" stroke-linejoin="miter" stroke="rgb(0%, 0%, 0%)" stroke-opacity="1" stroke-miterlimit="10" d="M -61.495851 53.992897 L -61.495851 13.947545 L -14.901549 13.947545 L -14.901549 53.992897 Z M -61.495851 53.992897 " transform="matrix(2.749129, 0, 0, -2.749129, 197.673315, 149.972508)"/>
</g>
<path fill="none" stroke-width="0.79701" stroke-linecap="butt" stroke-linejoin="miter" stroke="rgb(0%, 0%, 0%)" stroke-opacity="1" stroke-dasharray="0.79701 1.99255" stroke-miterlimit="10" d="M -12.645153 9.903651 L 10.48291 -11.358765 " transform="matrix(2.749129, 0, 0, -2.749129, 197.673315, 149.972508)"/>
<g clip-path="url(#clip-2)">
<path fill="none" stroke-width="0.79701" stroke-linecap="butt" stroke-linejoin="miter" stroke="rgb(0%, 0%, 0%)" stroke-opacity="1" stroke-dasharray="0.79701 1.99255" stroke-miterlimit="10" d="M 27.346205 -26.481451 L 47.140826 -43.589142 " transform="matrix(2.749129, 0, 0, -2.749129, 197.673315, 149.972508)"/>
</g>
<path fill-rule="nonzero" fill="rgb(0%, 0%, 0%)" fill-opacity="1" d="M 282.898438 253.824219 C 282.554688 254.039062 281.953125 254.382812 281.910156 254.425781 C 281.609375 254.769531 281.78125 255.160156 281.996094 255.332031 C 282.296875 255.589844 282.683594 255.632812 282.8125 255.546875 C 283.027344 255.460938 283.589844 255.117188 283.890625 254.859375 C 284.191406 254.640625 284.964844 254.125 285.351562 253.867188 C 285.695312 253.566406 286.082031 253.351562 286.382812 253.050781 C 287.117188 252.578125 287.117188 252.535156 287.847656 252.320312 C 288.921875 252.0625 290.339844 251.890625 291.460938 252.835938 C 292.277344 253.523438 291.761719 254.210938 291.460938 254.554688 C 290.683594 255.460938 288.707031 256.535156 287.933594 256.921875 C 287.417969 257.222656 287.246094 257.308594 287.03125 257.523438 C 286.382812 258.296875 286.597656 259.289062 287.332031 259.933594 C 288.792969 261.222656 291.117188 259.761719 291.332031 259.546875 C 291.503906 259.332031 291.375 259.203125 291.289062 259.160156 C 291.074219 258.988281 290.988281 259.074219 290.816406 259.160156 C 289.4375 260.0625 288.277344 260.105469 287.71875 259.632812 C 287.417969 259.332031 287.503906 259.074219 287.804688 258.773438 C 288.0625 258.425781 288.363281 258.339844 289.179688 257.910156 C 289.695312 257.566406 291.632812 256.535156 292.320312 255.761719 C 292.535156 255.503906 293.050781 254.902344 292.921875 254.039062 C 292.792969 253.609375 292.578125 253.050781 291.890625 252.449219 C 290.597656 251.332031 289.050781 251.503906 288.019531 251.675781 C 289.007812 250.339844 288.191406 249.265625 287.460938 248.621094 C 286.253906 247.546875 284.792969 247.589844 283.847656 247.804688 C 284.621094 246.769531 284.0625 245.695312 283.417969 245.136719 C 282.8125 244.621094 282.125 244.792969 281.609375 244.921875 C 280.792969 245.222656 279.933594 245.867188 279.847656 245.953125 C 279.675781 246.125 279.847656 246.296875 279.933594 246.339844 C 280.105469 246.511719 280.148438 246.46875 280.621094 246.167969 C 281.566406 245.480469 282.46875 245.050781 283.027344 245.523438 C 283.417969 245.867188 283.246094 246.253906 282.898438 246.640625 C 282.683594 246.898438 282.082031 247.375 281.609375 247.632812 C 281.179688 247.976562 280.535156 248.40625 280.191406 248.707031 L 278.082031 250.125 C 277.867188 250.296875 277.480469 250.597656 277.480469 250.597656 C 277.179688 250.941406 277.308594 251.289062 277.523438 251.503906 C 277.78125 251.71875 278.210938 251.71875 278.382812 251.675781 C 278.554688 251.632812 279.113281 251.246094 279.460938 251.03125 C 279.71875 250.8125 280.492188 250.253906 280.878906 249.953125 C 281.222656 249.695312 281.609375 249.480469 281.953125 249.222656 C 282.597656 248.75 282.769531 248.664062 283.71875 248.449219 C 284.578125 248.191406 285.910156 248.0625 287.03125 249.007812 C 287.847656 249.695312 287.203125 250.46875 286.988281 250.726562 C 286.683594 251.117188 286.511719 251.246094 285.566406 251.890625 Z M 282.898438 253.824219 "/>
<path fill-rule="nonzero" fill="rgb(0%, 0%, 0%)" fill-opacity="1" d="M 291.339844 265.078125 C 291.039062 265.25 290.566406 265.59375 290.523438 265.636719 C 290.351562 265.851562 290.394531 266.152344 290.566406 266.28125 C 290.738281 266.453125 291.039062 266.585938 291.425781 266.453125 C 291.46875 266.367188 292.03125 266.023438 292.289062 265.808594 C 293.835938 264.648438 293.835938 264.648438 293.878906 264.648438 C 294.265625 264.519531 296.289062 263.703125 297.535156 264.777344 C 298.050781 265.25 298.007812 265.679688 297.621094 266.152344 C 297.105469 266.757812 295.773438 267.445312 295.039062 267.832031 C 294.824219 267.875 294.695312 267.960938 294.523438 268.175781 C 294.050781 268.691406 294.265625 269.464844 294.867188 270.023438 C 295.988281 270.972656 297.75 270.152344 297.964844 269.894531 C 298.09375 269.765625 297.878906 269.59375 297.835938 269.550781 C 297.664062 269.378906 297.621094 269.421875 297.363281 269.550781 C 296.675781 270.023438 295.730469 270.195312 295.210938 269.722656 C 294.996094 269.550781 295.039062 269.335938 295.210938 269.121094 C 295.425781 268.863281 295.554688 268.777344 295.859375 268.648438 C 296.375 268.347656 297.878906 267.617188 298.351562 267.015625 C 298.996094 266.28125 298.910156 265.292969 297.921875 264.476562 C 296.976562 263.660156 295.816406 263.660156 295.039062 263.832031 C 295.730469 262.929688 295.082031 262.023438 294.695312 261.679688 C 293.664062 260.777344 291.988281 262.109375 291.988281 262.152344 C 291.859375 262.28125 292.03125 262.410156 292.074219 262.496094 C 292.246094 262.625 292.332031 262.582031 292.503906 262.496094 C 293.148438 262.023438 293.921875 261.636719 294.308594 261.980469 C 294.695312 262.324219 294.4375 262.667969 294.265625 262.929688 C 294.136719 263.058594 293.707031 263.359375 293.40625 263.574219 C 293.105469 263.789062 292.632812 264.132812 292.375 264.304688 Z M 291.339844 265.078125 "/>
<path fill="none" stroke-width="0.79701" stroke-linecap="butt" stroke-linejoin="miter" stroke="rgb(0%, 0%, 0%)" stroke-opacity="1" stroke-dasharray="0.79701 1.99255" stroke-miterlimit="10" d="M 40.519411 -24.279049 L 48.334385 -31.902202 " transform="matrix(2.749129, 0, 0, -2.749129, 197.673315, 149.972508)"/>
<g clip-path="url(#clip-3)">
<path fill="none" stroke-width="0.3985" stroke-linecap="butt" stroke-linejoin="miter" stroke="rgb(0%, 0%, 0%)" stroke-opacity="1" stroke-miterlimit="10" d="M 12.993648 -13.949074 L 12.993648 -53.994426 L 61.491961 -53.994426 L 61.491961 -13.949074 Z M 12.993648 -13.949074 " transform="matrix(2.749129, 0, 0, -2.749129, 197.673315, 149.972508)"/>
</g>
</svg>
